{
	"data": [
		{
			"name": "bin",
			"type": "dir",
			"author": "root",
			"data": [
				{
					"name": "help",
					"path": "bin/help",
					"data": "Commands are stored in /bin. Use 'cd' to navigate to the dir and use 'pwd' to see in which dir you are currently at.",
					"type": "file",
					"info": {
						"name": "help",
						"path": "bin/help",
						"extension": "None",
						"size": 116,
						"lines": 1,
						"date": "2022-02-16T06:39:38.158Z",
						"lastEdited": "2022-02-16T06:39:38.158Z",
						"author": "root"
					}
				},
				{
					"name": "cd",
					"path": "bin/cd",
					"data": "navigate directories",
					"type": "file",
					"info": {
						"name": "cd",
						"path": "bin/cd",
						"extension": "None",
						"size": 20,
						"lines": 1,
						"date": "2022-02-16T06:39:38.158Z",
						"lastEdited": "2022-02-16T06:39:38.158Z",
						"author": "root"
					}
				},
				{
					"name": "pwd",
					"path": "bin/pwd",
					"data": "show current path",
					"type": "file",
					"info": {
						"name": "pwd",
						"path": "bin/pwd",
						"extension": "None",
						"size": 17,
						"lines": 1,
						"date": "2022-02-16T06:39:38.158Z",
						"lastEdited": "2022-02-16T06:39:38.158Z",
						"author": "root"
					}
				},
				{
					"name": "ls",
					"path": "bin/ls",
					"data": "list files and directories",
					"type": "file",
					"info": {
						"name": "ls",
						"path": "bin/ls",
						"extension": "None",
						"size": 26,
						"lines": 1,
						"date": "2022-02-16T06:39:38.158Z",
						"lastEdited": "2022-02-16T06:39:38.158Z",
						"author": "root"
					}
				},
				{
					"name": "cat",
					"path": "bin/cat",
					"data": "displays the contents of a file",
					"type": "file",
					"info": {
						"name": "cat",
						"path": "bin/cat",
						"extension": "None",
						"size": 31,
						"lines": 1,
						"date": "2022-02-16T06:39:38.158Z",
						"lastEdited": "2022-02-16T06:39:38.158Z",
						"author": "root"
					}
				},
				{
					"name": "touch",
					"path": "bin/touch",
					"data": "creates a empty file",
					"type": "file",
					"info": {
						"name": "touch",
						"path": "bin/touch",
						"extension": "None",
						"size": 20,
						"lines": 1,
						"date": "2022-02-16T06:39:38.158Z",
						"lastEdited": "2022-02-16T06:39:38.158Z",
						"author": "root"
					}
				},
				{
					"name": "rm",
					"path": "bin/rm",
					"data": "removes a file",
					"type": "file",
					"info": {
						"name": "rm",
						"path": "bin/rm",
						"extension": "None",
						"size": 14,
						"lines": 1,
						"date": "2022-02-16T06:39:38.158Z",
						"lastEdited": "2022-02-16T06:39:38.158Z",
						"author": "root"
					}
				},
				{
					"name": "mkdir",
					"path": "bin/mkdir",
					"data": "creates a directory",
					"type": "file",
					"info": {
						"name": "mkdir",
						"path": "bin/mkdir",
						"extension": "None",
						"size": 19,
						"lines": 1,
						"date": "2022-02-16T06:39:38.158Z",
						"lastEdited": "2022-02-16T06:39:38.158Z",
						"author": "root"
					}
				},
				{
					"name": "rmdir",
					"path": "bin/rmdir",
					"data": "removes a directory",
					"type": "file",
					"info": {
						"name": "rmdir",
						"path": "bin/rmdir",
						"extension": "None",
						"size": 19,
						"lines": 1,
						"date": "2022-02-16T06:39:38.158Z",
						"lastEdited": "2022-02-16T06:39:38.158Z",
						"author": "root"
					}
				},
				{
					"name": "clear",
					"path": "bin/clear",
					"data": "clears the terminal",
					"type": "file",
					"info": {
						"name": "clear",
						"path": "bin/clear",
						"extension": "None",
						"size": 19,
						"lines": 1,
						"date": "2022-02-16T06:39:38.158Z",
						"lastEdited": "2022-02-16T06:39:38.158Z",
						"author": "root"
					}
				},
				{
					"name": "echo",
					"path": "bin/echo",
					"data": "displays a string",
					"type": "file",
					"info": {
						"name": "echo",
						"path": "bin/echo",
						"extension": "None",
						"size": 17,
						"lines": 1,
						"date": "2022-02-16T06:39:38.158Z",
						"lastEdited": "2022-02-16T06:39:38.158Z",
						"author": "root"
					}
				},
				{
					"name": "exit",
					"path": "bin/exit",
					"data": "exits the terminal (goes to '/' and clears the terminal)",
					"type": "file",
					"info": {
						"name": "exit",
						"path": "bin/exit",
						"extension": "None",
						"size": 56,
						"lines": 1,
						"date": "2022-02-16T06:39:38.158Z",
						"lastEdited": "2022-02-16T06:39:38.158Z",
						"author": "root"
					}
				},
				{
					"name": "log",
					"path": "bin/log",
					"data": "displays the log of the terminal",
					"type": "file",
					"info": {
						"name": "log",
						"path": "bin/log",
						"extension": "None",
						"size": 32,
						"lines": 1,
						"date": "2022-02-16T06:39:38.158Z",
						"lastEdited": "2022-02-16T06:39:38.158Z",
						"author": "root"
					}
				}
			]
		},
		{
			"name": "home",
			"type": "dir",
			"author": "root",
			"data": [
				{
					"name": "Desktop",
					"type": "dir",
					"author": "root",
					"data": []
				},
				{
					"name": "Documents",
					"type": "dir",
					"author": "root",
					"data": []
				},
				{
					"name": "Downloads",
					"type": "dir",
					"author": "root",
					"data": []
				},
				{
					"name": "Music",
					"type": "dir",
					"author": "root",
					"data": []
				},
				{
					"name": "Pictures",
					"type": "dir",
					"author": "root",
					"data": []
				},
				{
					"name": "Videos",
					"type": "dir",
					"author": "root",
					"data": []
				}
			]
		},
		{
			"name": "records",
			"type": "dir",
			"author": "root",
			"data": [
				{
					"name": "log",
					"path": "records/log",
					"data": "",
					"type": "file",
					"info": {
						"name": "log",
						"path": "records/log",
						"extension": "None",
						"size": 0,
						"lines": 1,
						"date": "2022-02-16T06:39:38.158Z",
						"lastEdited": "2022-02-16T06:39:38.158Z",
						"author": "root"
					}
				}
			]
		},
		{
			"name": "sys",
			"type": "dir",
			"author": "root",
			"data": [
				{
					"name": "golf",
					"path": "sys/golf",
					"data": "",
					"type": "file",
					"info": {
						"name": "golf",
						"path": "sys/golf",
						"extension": "None",
						"size": 0,
						"lines": 1,
						"date": "2022-02-16T06:39:38.158Z",
						"lastEdited": "2022-02-16T06:39:38.158Z",
						"author": "root"
					}
				},
				{
					"name": "trans",
					"path": "sys/trans",
					"data": "",
					"type": "file",
					"info": {
						"name": "trans",
						"path": "sys/trans",
						"extension": "None",
						"size": 0,
						"lines": 1,
						"date": "2022-02-16T06:39:38.158Z",
						"lastEdited": "2022-02-16T06:39:38.158Z",
						"author": "root"
					}
				},
				{
					"name": "mines",
					"type": "dir",
					"author": "root",
					"data": []
				}
			]
		}
	],
	"prefix": "$ ",
	"currentPath": "/",
	"currentDir": [
		{
			"name": "bin",
			"type": "dir",
			"author": "root",
			"data": [
				{
					"name": "help",
					"path": "bin/help",
					"data": "Commands are stored in /bin. Use 'cd' to navigate to the dir and use 'pwd' to see in which dir you are currently at.",
					"type": "file",
					"info": {
						"name": "help",
						"path": "bin/help",
						"extension": "None",
						"size": 116,
						"lines": 1,
						"date": "2022-02-16T06:39:38.158Z",
						"lastEdited": "2022-02-16T06:39:38.158Z",
						"author": "root"
					}
				},
				{
					"name": "cd",
					"path": "bin/cd",
					"data": "navigate directories",
					"type": "file",
					"info": {
						"name": "cd",
						"path": "bin/cd",
						"extension": "None",
						"size": 20,
						"lines": 1,
						"date": "2022-02-16T06:39:38.158Z",
						"lastEdited": "2022-02-16T06:39:38.158Z",
						"author": "root"
					}
				},
				{
					"name": "pwd",
					"path": "bin/pwd",
					"data": "show current path",
					"type": "file",
					"info": {
						"name": "pwd",
						"path": "bin/pwd",
						"extension": "None",
						"size": 17,
						"lines": 1,
						"date": "2022-02-16T06:39:38.158Z",
						"lastEdited": "2022-02-16T06:39:38.158Z",
						"author": "root"
					}
				},
				{
					"name": "ls",
					"path": "bin/ls",
					"data": "list files and directories",
					"type": "file",
					"info": {
						"name": "ls",
						"path": "bin/ls",
						"extension": "None",
						"size": 26,
						"lines": 1,
						"date": "2022-02-16T06:39:38.158Z",
						"lastEdited": "2022-02-16T06:39:38.158Z",
						"author": "root"
					}
				},
				{
					"name": "cat",
					"path": "bin/cat",
					"data": "displays the contents of a file",
					"type": "file",
					"info": {
						"name": "cat",
						"path": "bin/cat",
						"extension": "None",
						"size": 31,
						"lines": 1,
						"date": "2022-02-16T06:39:38.158Z",
						"lastEdited": "2022-02-16T06:39:38.158Z",
						"author": "root"
					}
				},
				{
					"name": "touch",
					"path": "bin/touch",
					"data": "creates a empty file",
					"type": "file",
					"info": {
						"name": "touch",
						"path": "bin/touch",
						"extension": "None",
						"size": 20,
						"lines": 1,
						"date": "2022-02-16T06:39:38.158Z",
						"lastEdited": "2022-02-16T06:39:38.158Z",
						"author": "root"
					}
				},
				{
					"name": "rm",
					"path": "bin/rm",
					"data": "removes a file",
					"type": "file",
					"info": {
						"name": "rm",
						"path": "bin/rm",
						"extension": "None",
						"size": 14,
						"lines": 1,
						"date": "2022-02-16T06:39:38.158Z",
						"lastEdited": "2022-02-16T06:39:38.158Z",
						"author": "root"
					}
				},
				{
					"name": "mkdir",
					"path": "bin/mkdir",
					"data": "creates a directory",
					"type": "file",
					"info": {
						"name": "mkdir",
						"path": "bin/mkdir",
						"extension": "None",
						"size": 19,
						"lines": 1,
						"date": "2022-02-16T06:39:38.158Z",
						"lastEdited": "2022-02-16T06:39:38.158Z",
						"author": "root"
					}
				},
				{
					"name": "rmdir",
					"path": "bin/rmdir",
					"data": "removes a directory",
					"type": "file",
					"info": {
						"name": "rmdir",
						"path": "bin/rmdir",
						"extension": "None",
						"size": 19,
						"lines": 1,
						"date": "2022-02-16T06:39:38.158Z",
						"lastEdited": "2022-02-16T06:39:38.158Z",
						"author": "root"
					}
				},
				{
					"name": "clear",
					"path": "bin/clear",
					"data": "clears the terminal",
					"type": "file",
					"info": {
						"name": "clear",
						"path": "bin/clear",
						"extension": "None",
						"size": 19,
						"lines": 1,
						"date": "2022-02-16T06:39:38.158Z",
						"lastEdited": "2022-02-16T06:39:38.158Z",
						"author": "root"
					}
				},
				{
					"name": "echo",
					"path": "bin/echo",
					"data": "displays a string",
					"type": "file",
					"info": {
						"name": "echo",
						"path": "bin/echo",
						"extension": "None",
						"size": 17,
						"lines": 1,
						"date": "2022-02-16T06:39:38.158Z",
						"lastEdited": "2022-02-16T06:39:38.158Z",
						"author": "root"
					}
				},
				{
					"name": "exit",
					"path": "bin/exit",
					"data": "exits the terminal (goes to '/' and clears the terminal)",
					"type": "file",
					"info": {
						"name": "exit",
						"path": "bin/exit",
						"extension": "None",
						"size": 56,
						"lines": 1,
						"date": "2022-02-16T06:39:38.158Z",
						"lastEdited": "2022-02-16T06:39:38.158Z",
						"author": "root"
					}
				},
				{
					"name": "log",
					"path": "bin/log",
					"data": "displays the log of the terminal",
					"type": "file",
					"info": {
						"name": "log",
						"path": "bin/log",
						"extension": "None",
						"size": 32,
						"lines": 1,
						"date": "2022-02-16T06:39:38.158Z",
						"lastEdited": "2022-02-16T06:39:38.158Z",
						"author": "root"
					}
				}
			]
		},
		{
			"name": "home",
			"type": "dir",
			"author": "root",
			"data": [
				{
					"name": "Desktop",
					"type": "dir",
					"author": "root",
					"data": []
				},
				{
					"name": "Documents",
					"type": "dir",
					"author": "root",
					"data": []
				},
				{
					"name": "Downloads",
					"type": "dir",
					"author": "root",
					"data": []
				},
				{
					"name": "Music",
					"type": "dir",
					"author": "root",
					"data": []
				},
				{
					"name": "Pictures",
					"type": "dir",
					"author": "root",
					"data": []
				},
				{
					"name": "Videos",
					"type": "dir",
					"author": "root",
					"data": []
				}
			]
		},
		{
			"name": "records",
			"type": "dir",
			"author": "root",
			"data": [
				{
					"name": "log",
					"path": "records/log",
					"data": "",
					"type": "file",
					"info": {
						"name": "log",
						"path": "records/log",
						"extension": "None",
						"size": 0,
						"lines": 1,
						"date": "2022-02-16T06:39:38.158Z",
						"lastEdited": "2022-02-16T06:39:38.158Z",
						"author": "root"
					}
				}
			]
		},
		{
			"name": "sys",
			"type": "dir",
			"author": "root",
			"data": [
				{
					"name": "golf",
					"path": "sys/golf",
					"data": "",
					"type": "file",
					"info": {
						"name": "golf",
						"path": "sys/golf",
						"extension": "None",
						"size": 0,
						"lines": 1,
						"date": "2022-02-16T06:39:38.158Z",
						"lastEdited": "2022-02-16T06:39:38.158Z",
						"author": "root"
					}
				},
				{
					"name": "trans",
					"path": "sys/trans",
					"data": "",
					"type": "file",
					"info": {
						"name": "trans",
						"path": "sys/trans",
						"extension": "None",
						"size": 0,
						"lines": 1,
						"date": "2022-02-16T06:39:38.158Z",
						"lastEdited": "2022-02-16T06:39:38.158Z",
						"author": "root"
					}
				},
				{
					"name": "mines",
					"type": "dir",
					"author": "root",
					"data": []
				}
			]
		}
	],
	"pastDirs": [
		[
			{
				"name": "bin",
				"type": "dir",
				"author": "root",
				"data": [
					{
						"name": "help",
						"path": "bin/help",
						"data": "Commands are stored in /bin. Use 'cd' to navigate to the dir and use 'pwd' to see in which dir you are currently at.",
						"type": "file",
						"info": {
							"name": "help",
							"path": "bin/help",
							"extension": "None",
							"size": 116,
							"lines": 1,
							"date": "2022-02-16T06:39:38.158Z",
							"lastEdited": "2022-02-16T06:39:38.158Z",
							"author": "root"
						}
					},
					{
						"name": "cd",
						"path": "bin/cd",
						"data": "navigate directories",
						"type": "file",
						"info": {
							"name": "cd",
							"path": "bin/cd",
							"extension": "None",
							"size": 20,
							"lines": 1,
							"date": "2022-02-16T06:39:38.158Z",
							"lastEdited": "2022-02-16T06:39:38.158Z",
							"author": "root"
						}
					},
					{
						"name": "pwd",
						"path": "bin/pwd",
						"data": "show current path",
						"type": "file",
						"info": {
							"name": "pwd",
							"path": "bin/pwd",
							"extension": "None",
							"size": 17,
							"lines": 1,
							"date": "2022-02-16T06:39:38.158Z",
							"lastEdited": "2022-02-16T06:39:38.158Z",
							"author": "root"
						}
					},
					{
						"name": "ls",
						"path": "bin/ls",
						"data": "list files and directories",
						"type": "file",
						"info": {
							"name": "ls",
							"path": "bin/ls",
							"extension": "None",
							"size": 26,
							"lines": 1,
							"date": "2022-02-16T06:39:38.158Z",
							"lastEdited": "2022-02-16T06:39:38.158Z",
							"author": "root"
						}
					},
					{
						"name": "cat",
						"path": "bin/cat",
						"data": "displays the contents of a file",
						"type": "file",
						"info": {
							"name": "cat",
							"path": "bin/cat",
							"extension": "None",
							"size": 31,
							"lines": 1,
							"date": "2022-02-16T06:39:38.158Z",
							"lastEdited": "2022-02-16T06:39:38.158Z",
							"author": "root"
						}
					},
					{
						"name": "touch",
						"path": "bin/touch",
						"data": "creates a empty file",
						"type": "file",
						"info": {
							"name": "touch",
							"path": "bin/touch",
							"extension": "None",
							"size": 20,
							"lines": 1,
							"date": "2022-02-16T06:39:38.158Z",
							"lastEdited": "2022-02-16T06:39:38.158Z",
							"author": "root"
						}
					},
					{
						"name": "rm",
						"path": "bin/rm",
						"data": "removes a file",
						"type": "file",
						"info": {
							"name": "rm",
							"path": "bin/rm",
							"extension": "None",
							"size": 14,
							"lines": 1,
							"date": "2022-02-16T06:39:38.158Z",
							"lastEdited": "2022-02-16T06:39:38.158Z",
							"author": "root"
						}
					},
					{
						"name": "mkdir",
						"path": "bin/mkdir",
						"data": "creates a directory",
						"type": "file",
						"info": {
							"name": "mkdir",
							"path": "bin/mkdir",
							"extension": "None",
							"size": 19,
							"lines": 1,
							"date": "2022-02-16T06:39:38.158Z",
							"lastEdited": "2022-02-16T06:39:38.158Z",
							"author": "root"
						}
					},
					{
						"name": "rmdir",
						"path": "bin/rmdir",
						"data": "removes a directory",
						"type": "file",
						"info": {
							"name": "rmdir",
							"path": "bin/rmdir",
							"extension": "None",
							"size": 19,
							"lines": 1,
							"date": "2022-02-16T06:39:38.158Z",
							"lastEdited": "2022-02-16T06:39:38.158Z",
							"author": "root"
						}
					},
					{
						"name": "clear",
						"path": "bin/clear",
						"data": "clears the terminal",
						"type": "file",
						"info": {
							"name": "clear",
							"path": "bin/clear",
							"extension": "None",
							"size": 19,
							"lines": 1,
							"date": "2022-02-16T06:39:38.158Z",
							"lastEdited": "2022-02-16T06:39:38.158Z",
							"author": "root"
						}
					},
					{
						"name": "echo",
						"path": "bin/echo",
						"data": "displays a string",
						"type": "file",
						"info": {
							"name": "echo",
							"path": "bin/echo",
							"extension": "None",
							"size": 17,
							"lines": 1,
							"date": "2022-02-16T06:39:38.158Z",
							"lastEdited": "2022-02-16T06:39:38.158Z",
							"author": "root"
						}
					},
					{
						"name": "exit",
						"path": "bin/exit",
						"data": "exits the terminal (goes to '/' and clears the terminal)",
						"type": "file",
						"info": {
							"name": "exit",
							"path": "bin/exit",
							"extension": "None",
							"size": 56,
							"lines": 1,
							"date": "2022-02-16T06:39:38.158Z",
							"lastEdited": "2022-02-16T06:39:38.158Z",
							"author": "root"
						}
					},
					{
						"name": "log",
						"path": "bin/log",
						"data": "displays the log of the terminal",
						"type": "file",
						"info": {
							"name": "log",
							"path": "bin/log",
							"extension": "None",
							"size": 32,
							"lines": 1,
							"date": "2022-02-16T06:39:38.158Z",
							"lastEdited": "2022-02-16T06:39:38.158Z",
							"author": "root"
						}
					}
				]
			},
			{
				"name": "home",
				"type": "dir",
				"author": "root",
				"data": [
					{
						"name": "Desktop",
						"type": "dir",
						"author": "root",
						"data": []
					},
					{
						"name": "Documents",
						"type": "dir",
						"author": "root",
						"data": []
					},
					{
						"name": "Downloads",
						"type": "dir",
						"author": "root",
						"data": []
					},
					{
						"name": "Music",
						"type": "dir",
						"author": "root",
						"data": []
					},
					{
						"name": "Pictures",
						"type": "dir",
						"author": "root",
						"data": []
					},
					{
						"name": "Videos",
						"type": "dir",
						"author": "root",
						"data": []
					}
				]
			},
			{
				"name": "records",
				"type": "dir",
				"author": "root",
				"data": [
					{
						"name": "log",
						"path": "records/log",
						"data": "",
						"type": "file",
						"info": {
							"name": "log",
							"path": "records/log",
							"extension": "None",
							"size": 0,
							"lines": 1,
							"date": "2022-02-16T06:39:38.158Z",
							"lastEdited": "2022-02-16T06:39:38.158Z",
							"author": "root"
						}
					}
				]
			},
			{
				"name": "sys",
				"type": "dir",
				"author": "root",
				"data": [
					{
						"name": "golf",
						"path": "sys/golf",
						"data": "",
						"type": "file",
						"info": {
							"name": "golf",
							"path": "sys/golf",
							"extension": "None",
							"size": 0,
							"lines": 1,
							"date": "2022-02-16T06:39:38.158Z",
							"lastEdited": "2022-02-16T06:39:38.158Z",
							"author": "root"
						}
					},
					{
						"name": "trans",
						"path": "sys/trans",
						"data": "",
						"type": "file",
						"info": {
							"name": "trans",
							"path": "sys/trans",
							"extension": "None",
							"size": 0,
							"lines": 1,
							"date": "2022-02-16T06:39:38.158Z",
							"lastEdited": "2022-02-16T06:39:38.158Z",
							"author": "root"
						}
					},
					{
						"name": "mines",
						"type": "dir",
						"author": "root",
						"data": []
					}
				]
			}
		],
		[
			{
				"name": "bin",
				"type": "dir",
				"author": "root",
				"data": [
					{
						"name": "help",
						"path": "bin/help",
						"data": "Commands are stored in /bin. Use 'cd' to navigate to the dir and use 'pwd' to see in which dir you are currently at.",
						"type": "file",
						"info": {
							"name": "help",
							"path": "bin/help",
							"extension": "None",
							"size": 116,
							"lines": 1,
							"date": "2022-02-16T06:39:38.158Z",
							"lastEdited": "2022-02-16T06:39:38.158Z",
							"author": "root"
						}
					},
					{
						"name": "cd",
						"path": "bin/cd",
						"data": "navigate directories",
						"type": "file",
						"info": {
							"name": "cd",
							"path": "bin/cd",
							"extension": "None",
							"size": 20,
							"lines": 1,
							"date": "2022-02-16T06:39:38.158Z",
							"lastEdited": "2022-02-16T06:39:38.158Z",
							"author": "root"
						}
					},
					{
						"name": "pwd",
						"path": "bin/pwd",
						"data": "show current path",
						"type": "file",
						"info": {
							"name": "pwd",
							"path": "bin/pwd",
							"extension": "None",
							"size": 17,
							"lines": 1,
							"date": "2022-02-16T06:39:38.158Z",
							"lastEdited": "2022-02-16T06:39:38.158Z",
							"author": "root"
						}
					},
					{
						"name": "ls",
						"path": "bin/ls",
						"data": "list files and directories",
						"type": "file",
						"info": {
							"name": "ls",
							"path": "bin/ls",
							"extension": "None",
							"size": 26,
							"lines": 1,
							"date": "2022-02-16T06:39:38.158Z",
							"lastEdited": "2022-02-16T06:39:38.158Z",
							"author": "root"
						}
					},
					{
						"name": "cat",
						"path": "bin/cat",
						"data": "displays the contents of a file",
						"type": "file",
						"info": {
							"name": "cat",
							"path": "bin/cat",
							"extension": "None",
							"size": 31,
							"lines": 1,
							"date": "2022-02-16T06:39:38.158Z",
							"lastEdited": "2022-02-16T06:39:38.158Z",
							"author": "root"
						}
					},
					{
						"name": "touch",
						"path": "bin/touch",
						"data": "creates a empty file",
						"type": "file",
						"info": {
							"name": "touch",
							"path": "bin/touch",
							"extension": "None",
							"size": 20,
							"lines": 1,
							"date": "2022-02-16T06:39:38.158Z",
							"lastEdited": "2022-02-16T06:39:38.158Z",
							"author": "root"
						}
					},
					{
						"name": "rm",
						"path": "bin/rm",
						"data": "removes a file",
						"type": "file",
						"info": {
							"name": "rm",
							"path": "bin/rm",
							"extension": "None",
							"size": 14,
							"lines": 1,
							"date": "2022-02-16T06:39:38.158Z",
							"lastEdited": "2022-02-16T06:39:38.158Z",
							"author": "root"
						}
					},
					{
						"name": "mkdir",
						"path": "bin/mkdir",
						"data": "creates a directory",
						"type": "file",
						"info": {
							"name": "mkdir",
							"path": "bin/mkdir",
							"extension": "None",
							"size": 19,
							"lines": 1,
							"date": "2022-02-16T06:39:38.158Z",
							"lastEdited": "2022-02-16T06:39:38.158Z",
							"author": "root"
						}
					},
					{
						"name": "rmdir",
						"path": "bin/rmdir",
						"data": "removes a directory",
						"type": "file",
						"info": {
							"name": "rmdir",
							"path": "bin/rmdir",
							"extension": "None",
							"size": 19,
							"lines": 1,
							"date": "2022-02-16T06:39:38.158Z",
							"lastEdited": "2022-02-16T06:39:38.158Z",
							"author": "root"
						}
					},
					{
						"name": "clear",
						"path": "bin/clear",
						"data": "clears the terminal",
						"type": "file",
						"info": {
							"name": "clear",
							"path": "bin/clear",
							"extension": "None",
							"size": 19,
							"lines": 1,
							"date": "2022-02-16T06:39:38.158Z",
							"lastEdited": "2022-02-16T06:39:38.158Z",
							"author": "root"
						}
					},
					{
						"name": "echo",
						"path": "bin/echo",
						"data": "displays a string",
						"type": "file",
						"info": {
							"name": "echo",
							"path": "bin/echo",
							"extension": "None",
							"size": 17,
							"lines": 1,
							"date": "2022-02-16T06:39:38.158Z",
							"lastEdited": "2022-02-16T06:39:38.158Z",
							"author": "root"
						}
					},
					{
						"name": "exit",
						"path": "bin/exit",
						"data": "exits the terminal (goes to '/' and clears the terminal)",
						"type": "file",
						"info": {
							"name": "exit",
							"path": "bin/exit",
							"extension": "None",
							"size": 56,
							"lines": 1,
							"date": "2022-02-16T06:39:38.158Z",
							"lastEdited": "2022-02-16T06:39:38.158Z",
							"author": "root"
						}
					},
					{
						"name": "log",
						"path": "bin/log",
						"data": "displays the log of the terminal",
						"type": "file",
						"info": {
							"name": "log",
							"path": "bin/log",
							"extension": "None",
							"size": 32,
							"lines": 1,
							"date": "2022-02-16T06:39:38.158Z",
							"lastEdited": "2022-02-16T06:39:38.158Z",
							"author": "root"
						}
					}
				]
			},
			{
				"name": "home",
				"type": "dir",
				"author": "root",
				"data": [
					{
						"name": "Desktop",
						"type": "dir",
						"author": "root",
						"data": []
					},
					{
						"name": "Documents",
						"type": "dir",
						"author": "root",
						"data": []
					},
					{
						"name": "Downloads",
						"type": "dir",
						"author": "root",
						"data": []
					},
					{
						"name": "Music",
						"type": "dir",
						"author": "root",
						"data": []
					},
					{
						"name": "Pictures",
						"type": "dir",
						"author": "root",
						"data": []
					},
					{
						"name": "Videos",
						"type": "dir",
						"author": "root",
						"data": []
					}
				]
			},
			{
				"name": "records",
				"type": "dir",
				"author": "root",
				"data": [
					{
						"name": "log",
						"path": "records/log",
						"data": "",
						"type": "file",
						"info": {
							"name": "log",
							"path": "records/log",
							"extension": "None",
							"size": 0,
							"lines": 1,
							"date": "2022-02-16T06:39:38.158Z",
							"lastEdited": "2022-02-16T06:39:38.158Z",
							"author": "root"
						}
					}
				]
			},
			{
				"name": "sys",
				"type": "dir",
				"author": "root",
				"data": [
					{
						"name": "golf",
						"path": "sys/golf",
						"data": "",
						"type": "file",
						"info": {
							"name": "golf",
							"path": "sys/golf",
							"extension": "None",
							"size": 0,
							"lines": 1,
							"date": "2022-02-16T06:39:38.158Z",
							"lastEdited": "2022-02-16T06:39:38.158Z",
							"author": "root"
						}
					},
					{
						"name": "trans",
						"path": "sys/trans",
						"data": "",
						"type": "file",
						"info": {
							"name": "trans",
							"path": "sys/trans",
							"extension": "None",
							"size": 0,
							"lines": 1,
							"date": "2022-02-16T06:39:38.158Z",
							"lastEdited": "2022-02-16T06:39:38.158Z",
							"author": "root"
						}
					},
					{
						"name": "mines",
						"type": "dir",
						"author": "root",
						"data": []
					}
				]
			}
		],
		[
			{
				"name": "Desktop",
				"type": "dir",
				"author": "root",
				"data": []
			},
			{
				"name": "Documents",
				"type": "dir",
				"author": "root",
				"data": []
			},
			{
				"name": "Downloads",
				"type": "dir",
				"author": "root",
				"data": []
			},
			{
				"name": "Music",
				"type": "dir",
				"author": "root",
				"data": []
			},
			{
				"name": "Pictures",
				"type": "dir",
				"author": "root",
				"data": []
			},
			{
				"name": "Videos",
				"type": "dir",
				"author": "root",
				"data": []
			}
		]
	],
	"output": "Amah_1113#1361$ ls\n**bin**/\n**home**/\n**records**/\n**sys**/\nAmah_1113#1361$ golf --show\nAmah_1113#1361$ golf --show\nAmah_1113#1361$ restart\nAmah_1113#1361$ restart\nAmah_1113#1361$ restart\nТhе buttег mаn bоbi#4190$ ls\n**bin**/\n**home**/\n**records**/\n**sys**/\nТhе buttег mаn bоbi#4190$ ls home\n**Desktop**/\n**Documents**/\n**Downloads**/\n**Music**/\n**Pictures**/\n**Videos**/\nТhе buttег mаn bоbi#4190$ ls ~/Downloads\nDirectory not found\nDirectory not found\n**bin**/\n**home**/\n**records**/\n**sys**/\nТhе buttег mаn bоbi#4190$ ls home/Downloads\nAmah_1113#1361$ ls\n**bin**/\n**home**/\n**records**/\n**sys**/\nAmah_1113#1361$ ls ~\nDirectory not found\n**bin**/\n**home**/\n**records**/\n**sys**/\nAmah_1113#1361$ ls ~/Desktop\nDirectory not found\nDirectory not found\n**bin**/\n**home**/\n**records**/\n**sys**/\nAmah_1113#1361$ ls ~\nDirectory not found\n**bin**/\n**home**/\n**records**/\n**sys**/\nAmah_1113#1361$ restart\nAmah_1113#1361$ restart\nAmah_1113#1361$ ks\nAmah_1113#1361$ restart\nAmah_1113#1361$ restart\nAmah_1113#1361$ restart\nAmah_1113#1361$ restart\nAmah_1113#1361$ restart\nAmah_1113#1361$ restart\nAmah_1113#1361$ restart\nAmah_1113#1361$ restart\nAmah_1113#1361$ restart\nAmah_1113#1361$ retart\nAmah_1113#1361$ restart\nAmah_1113#1361$ restart\nAmah_1113#1361$ golf -t 748573404759589056 4\nТhе buttег mаn bоbi#4190$ golf -t 748573404759589056 4\nТhе buttег mаn bоbi#4190$ golf -t 617976731667660820 4\nТhе buttег mаn bоbi#4190$ golf -t 613375566376337459 100000000\nТhе buttег mаn bоbi#4190$ golf -t 613375566376337459 10000000000000000000000\nТhе buttег mаn bоbi#4190$ golf -t 613375566376337459 -10000000000000000000000\nAmah_1113#1361$ golf -show\nТhе buttег mаn bоbi#4190$ golf -t 613375566376337459 PI\nAmah_1113#1361$ golf --show\nТhе buttег mаn bоbi#4190$ golf -t 613375566376337459 1203814093434905834905834590684506846\nТhе buttег mаn bоbi#4190$ golf --show\nAmah_1113#1361$ golf -l\nAmah_1113#1361$ restart\nAmah_1113#1361$ neofetch\nAmah_1113#1361$ restart\n",
	"ip": "613375566376337459",
	"connected": true,
	"linked": "",
	"password": "123456789",
	"golf": 434715388.218731,
	"golfMine": 1,
	"invite": "",
	"version": "0.0.7",
	"libs": []
}